EDA_sara
…
# A tibble: 7 × 2
  brinco2022              `n()`
  <chr>                   <int>
1 MC_2021 MC_2022             5
2 MORENA_2021 MORENA_2022    57
3 PAN_2021 PAN_2022          38
4 PRD_2021 PRD_2022           5
5 PRI_2021 PRI_2022          20
6 PT_2021 PT_2022            13
7 PVEM_2021 PVEM_2022        13

sankey %>% group_by(brinco2024) %>% summarise(n())

# A tibble: 23 × 2
   brinco2024              `n()`
   <chr>                   <int>
 1 MC_2022 MC_2024             5
 2 MORENA_2022 C5_2024         1
 3 MORENA_2022 MC_2024         1
 4 MORENA_2022 MORENA_2024    42
 5 MORENA_2022 PT_2024         7
 6 MORENA_2022 PVEM_2024       6
 7 PAN_2022 MORENA_2024        1
 8 PAN_2022 PAN_2024          35
 9 PAN_2022 PRD_2024           1
10 PAN_2022 PRI_2024           1
# ℹ 13 more rows
…
